…
Glimpse and back up as csv

``` r
tdm_data
#> # A tibble: 13,779 × 5
#>    n_articles publisher           intended_application content_type open_license
#>         <int> <chr>               <chr>                <chr>        <chr>       
#>  1    7504626 Elsevier BV         text-mining          text/plain   <NA>        
#>  2    7504626 Elsevier BV         text-mining          text/xml     <NA>        
#>  3    2768473 Springer Science a… text-mining          application… <NA>        
#>  4    2768201 Springer Science a… text-mining          text/html    <NA>        
#>  5    1559266 Wiley               text-mining          application… <NA>        
#>  6    1180186 Elsevier BV         text-mining          text/plain   CC          
#>  7    1180186 Elsevier BV         text-mining          text/xml     CC          
#>  8    1033789 Springer Science a… text-mining          application… CC          
#>  9    1033760 Springer Science a… text-mining          text/html    CC          
#> 10     851299 Wiley               text-mining          application… <NA>        
#> # ℹ 13,769 more rows
…
